<?xml version="1.0" encoding="UTF-8"?>
<kml xmlns="http://www.opengis.net/kml/2.2" xmlns:xsi="http://www.w3.org/2001/XMLSchema-instance" xsi:schemaLocation="http://www.opengis.net/kml/2.2 http://schemas.opengis.net/kml/2.2.0/ogckml22.xsd">
  <Document>
    <name>Den Kongelige Marskrute helt ny</name>
    <description><![CDATA[Generated by GPSies.com http://www.gpsies.com/]]></description>
    <Style id="gpsiesStyle">
      <IconStyle>
        <scale>0.5</scale>
        <Icon>
          <href>http://www.gpsies.com/images/milestone.png</href>
        </Icon>
      </IconStyle>
      <LineStyle>
        <colorMode>random</colorMode>
        <width>5</width>
      </LineStyle>
    </Style>
    <Style id="flag_n">
      <IconStyle>
        <scale>0.8</scale>
        <Icon>
          <href>http://www.gpsies.com/images/flag.png</href>
        </Icon>
      </IconStyle>
      <LabelStyle>
        <scale>0</scale>
      </LabelStyle>
      <BalloonStyle>
        <text>$[description]</text>
      </BalloonStyle>
    </Style>
    <Style id="flag_h">
      <IconStyle>
        <scale>0.8</scale>
        <Icon>
          <href>http://www.gpsies.com/images/flag.png</href>
        </Icon>
      </IconStyle>
      <LabelStyle>
        <scale>1</scale>
      </LabelStyle>
      <BalloonStyle>
        <text>$[description]</text>
      </BalloonStyle>
    </Style>
    <StyleMap id="flag">
      <Pair>
        <key>normal</key>
        <styleUrl>#flag_n</styleUrl>
      </Pair>
      <Pair>
        <key>highlight</key>
        <styleUrl>#flag_h</styleUrl>
      </Pair>
    </StyleMap>
    <Placemark>
      <name>Den Kongelige Marskrute helt ny</name>
      <visibility>1</visibility>
      <open>1</open>
      <Snippet maxLines="0" />
      <description><![CDATA[Generated by GPSies.com http://www.gpsies.com/]]></description>
      <styleUrl>#gpsiesStyle</styleUrl>
      <MultiGeometry>
        <LineString>
          <extrude>true</extrude>
          <tessellate>true</tessellate>
          <coordinates>8.869550000,54.93398400,7.0000000
8.869486000,54.93434200,7.0000000
8.870580000,54.93444100,7.0000000
8.871439000,54.93463800,6.0000000
8.871052000,54.93495800,6.0000000
8.870559000,54.93596900,8.0000000
8.872147000,54.93668400,6.0000000
8.874056000,54.93767000,6.0000000
8.874142000,54.93833600,5.0000000
8.873799000,54.93898900,3.0000000
8.873584000,54.93950700,3.0000000
8.870151000,54.93887800,1.0000000
8.869679000,54.93921100,1.0000000
8.867276000,54.93876700,3.0000000
8.867426000,54.93837300,2.0000000
8.866010000,54.93804000,2.0000000
8.864207000,54.93764600,2.0000000
8.863778000,54.93848400,3.0000000
8.859015000,54.93806500,2.0000000
8.856139000,54.93804000,2.0000000
8.855667000,54.93895200,1.0000000
8.855410000,54.94573100,3.0000000
8.843908000,54.94469600,2.0000000
8.834381000,54.94819600,2.0000000
8.833394000,54.94775200,3.0000000
8.822923000,54.94615000,5.0000000
8.819962000,54.94501600,6.0000000
8.811421000,54.94223100,14.000000
8.807902000,54.94191000,12.000000
8.803053000,54.94082600,10.000000
8.802580833,54.94420290,12.000000
8.801808357,54.94782621,14.000000
8.801422119,54.95179421,10.000000
8.801078796,54.95465291,8.0000000
8.801593780,54.95603290,8.0000000
8.803482055,54.96046825,7.0000000
8.802623748,54.96258719,5.0000000
8.800735473,54.96352343,8.0000000
8.790607452,54.96529730,5.0000000
8.780307769,54.96815503,5.0000000
8.768291473,54.96912809,8.0000000
8.768270015,54.96941138,8.0000000
8.748679161,54.96971931,10.000000
8.746662139,54.96978089,11.000000
8.746275901,54.96931285,10.000000
8.745074272,54.96917736,8.0000000
8.744409084,54.96942370,7.0000000
8.742864131,54.96949760,6.0000000
8.741168975,54.96911577,5.0000000
8.741104602,54.96880785,5.0000000
8.739945888,54.96879553,6.0000000
8.738379478,54.96862309,3.0000000
8.736662864,54.96583930,4.0000000
8.736019134,54.96496470,4.0000000
8.735933303,54.96294444,4.0000000
8.731256000,54.96295700,2.0000000
8.715334000,54.96293200,1.0000000
8.703618000,54.96273500,5.0000000
8.701193000,54.96274700,6.0000000
8.698704000,54.96332600,8.0000000
8.694263000,54.96418900,7.0000000
8.693962000,54.96380700,6.0000000
8.694091000,54.96315400,6.0000000
8.694220000,54.96263600,5.0000000
8.694756000,54.96252500,5.0000000
8.695335000,54.96144100,3.0000000
8.695250000,54.96124400,3.0000000
8.694305000,54.95912500,1.0000000
8.692310000,54.95482500,1.0000000
8.689241000,54.94836800,-1.000000
8.686666000,54.94265000,0.0000000
8.683169000,54.93514300,1.0000000
8.674114000,54.91566100,1.0000000
8.669543000,54.91143000,1.0000000
8.669672000,54.91131900,1.0000000
8.670273000,54.91131900,1.0000000
8.675680000,54.91081400,1.0000000
8.677075000,54.91087500,0.0000000
8.680530000,54.91044400,0.0000000
8.686860000,54.90886500,1.0000000
8.695893000,54.90525000,0.0000000
8.696580000,54.90467000,1.0000000
8.699734000,54.90362200,0.0000000
8.700807000,54.90274600,0.0000000
8.707588000,54.90079600,0.0000000
8.709948000,54.89869900,0.0000000
8.715506000,54.89725500,0.0000000
8.715742000,54.89671200,1.0000000
8.714991000,54.89512000,0.0000000
8.716214000,54.89370100,0.0000000
8.716235000,54.89296100,0.0000000
8.716793000,54.89219600,0.0000000
8.726020000,54.89228200,-3.000000
8.728337000,54.89255400,-2.000000
8.737993000,54.89297300,-1.000000
8.748937000,54.89529300,1.0000000
8.750482000,54.89512000,2.0000000
8.750181000,54.89618200,2.0000000
8.750868000,54.89793400,0.0000000
8.752198000,54.89961200,1.0000000
8.753786000,54.90055000,3.0000000
8.751726000,54.90212900,0.0000000
8.762884000,54.90701400,-2.000000
8.764772000,54.90775500,-1.000000
8.767691000,54.90864300,-2.000000
8.771811000,54.91333000,-1.000000
8.774815000,54.91402100,-2.000000
8.779535000,54.91446500,-1.000000
8.783998000,54.91648700,0.0000000
8.786402000,54.91915100,-1.000000
8.787088000,54.92211100,0.0000000
8.796701000,54.92196300,-1.000000
8.797989000,54.92738800,-1.000000
8.799019000,54.93148200,0.0000000
8.797989000,54.93236900,0.0000000
8.800907000,54.93680700,2.0000000
8.801808000,54.93688100,2.0000000
8.801551000,54.93811400,4.0000000
8.802495000,54.93865600,6.0000000
8.803439000,54.93841000,6.0000000
8.803740000,54.93831100,6.0000000
8.803697000,54.93693100,4.0000000
8.805757000,54.93653600,3.0000000
8.806615000,54.93596900,0.0000000
8.807902000,54.93582100,1.0000000
8.810434000,54.93562400,0.0000000
8.813653000,54.93599400,0.0000000
8.814597000,54.93589500,-1.000000
8.816228000,54.93577200,-1.000000
8.833308000,54.93451400,0.0000000
8.834724000,54.93522900,1.0000000
8.841033000,54.93688100,-1.000000
8.844767000,54.93678300,0.0000000
8.845840000,54.93695500,1.0000000
8.846118000,54.93682000,1.0000000
8.850389000,54.93733700,1.0000000
8.850839000,54.93675800,2.0000000
8.851526000,54.93617900,2.0000000
8.852599000,54.93573500,2.0000000
8.854122000,54.93556200,2.0000000
8.855796000,54.93542700,3.0000000
8.860817000,54.93510600,4.0000000
8.862941000,54.93516800,2.0000000
8.863091000,54.93473600,2.0000000
8.864272000,54.93398400,2.0000000
8.865302000,54.93352800,3.0000000
8.866761000,54.93302300,4.0000000
8.868113000,54.93283800,5.0000000
8.868241000,54.93323200,6.0000000
8.867898000,54.93355300,5.0000000
8.869529000,54.93392300,7.0000000</coordinates>
        </LineString>
      </MultiGeometry>
    </Placemark>
  </Document>
</kml>

